{"description":"All Documents","count":10000,"total_pages":50,"next_page_url":"https://www.federalregister.gov/api/v1/documents?format=json&page=2&per_page=5","results":[{"title":"Changes Related to Insurance Requirements in Multi-Family Housing (MFH) Direct Loan and Grant Programs","type":"Rule","abstract":"The Rural Housing Service (RHS or the Agency), a Rural Development (RD) agency of the United States Department of Agriculture (USDA), will implement changes related to insurance requirements under the Multi-Family Housing (MFH) Direct Loan and Grant programs. This final rule will align RD insurance coverage types, amounts, and deductibles with affordable housing industry standards to simplify the coverage amounts, deductible limits, and improve customer experience with updated and understandable insurance requirements.","document_number":"2026-07618","html_url":"https://www.federalregister.gov/documents/2026/04/20/2026-07618/changes-related-to-insurance-requirements-in-multi-family-housing-mfh-direct-loan-and-grant-programs","pdf_url":"https://www.govinfo.gov/content/pkg/FR-2026-04-20/pdf/2026-07618.pdf","public_inspection_pdf_url":"https://public-inspection.federalregister.gov/2026-07618.pdf?1776429913","publication_date":"2026-04-20","agencies":[{"raw_name":"DEPARTMENT OF AGRICULTURE","name":"Agriculture Department","id":12,"url":"https://www.federalregister.gov/agencies/agriculture-department","json_url":"https://www.federalregister.gov/api/v1/agencies/12","parent_id":null,"slug":"agriculture-department"},{"raw_name":"Rural Housing Service","name":"Rural Housing Service","id":458,"url":"https://www.federalregister.gov/agencies/rural-housing-service","json_url":"https://www.federalregister.gov/api/v1/agencies/458","parent_id":12,"slug":"rural-housing-service"}],"excerpts":"The Rural Housing Service (RHS or the Agency), a Rural Development (RD) agency of the United States Department of Agriculture (USDA), will implement changes related to insurance requirements under the Multi-Family Housing (MFH) Direct Loan and Grant..."},{"title":"Safety Standard for Infant and Cradle Swings","type":"Rule","abstract":"In May 2024, the U.S. Consumer Product Safety Commission (CPSC or Commission) published an update to the consumer product safety standard for infant and cradle swings under the Consumer Product Safety Improvement Act of 2008 (CPSIA). The standard incorporated by reference ASTM F2088-24, Standard Consumer Safety Specification for Infant and Cradle Swings, the voluntary standard for infant and cradle swings that was in effect at the time. ASTM has now issued a revised standard, ASTM F2088-25. Consistent with the CPSIA, this direct final rule updates the mandatory standard to incorporate by reference ASTM's 2025 version of the voluntary standard.","document_number":"2026-07638","html_url":"https://www.federalregister.gov/documents/2026/04/20/2026-07638/safety-standard-for-infant-and-cradle-swings","pdf_url":"https://www.govinfo.gov/content/pkg/FR-2026-04-20/pdf/2026-07638.pdf","public_inspection_pdf_url":"https://public-inspection.federalregister.gov/2026-07638.pdf?1776429915","publication_date":"2026-04-20","agencies":[{"raw_name":"CONSUMER PRODUCT SAFETY COMMISSION","name":"Consumer Product Safety Commission","id":84,"url":"https://www.federalregister.gov/agencies/consumer-product-safety-commission","json_url":"https://www.federalregister.gov/api/v1/agencies/84","parent_id":null,"slug":"consumer-product-safety-commission"}],"excerpts":"In May 2024, the U.S. Consumer Product Safety Commission (CPSC or Commission) published an update to the consumer product safety standard for infant and cradle swings under the Consumer Product Safety Improvement Act of 2008 (CPSIA). The standard..."},{"title":"Order Providing Exemptive Relief To Facilitate Cross-Margining of Customer Positions Cleared at Chicago Mercantile Exchange, Inc. and Fixed Income Clearing Corporation","type":"Rule","abstract":"The Commodity Futures Trading Commission (\"CFTC\" or \"Commission\") is issuing an order pursuant to the Commodity Exchange Act (\"CEA\") that provides exemptive relief from the CEA and Commission regulations related to segregation and protection of futures customer funds. The order permits joint clearing members of the Chicago Mercantile Exchange, Inc. (\"CME\") and the Fixed Income Clearing Corporation (\"FICC\") that are dually registered as broker-dealers with the Securities and Exchange Commission (\"SEC\") and futures commission merchants (\"FCMs\") with the Commission (\"BD-FCMs\") to hold futures customer funds in a commingled customer account at FICC.","document_number":"2026-07643","html_url":"https://www.federalregister.gov/documents/2026/04/20/2026-07643/order-providing-exemptive-relief-to-facilitate-cross-margining-of-customer-positions-cleared-at","pdf_url":"https://www.govinfo.gov/content/pkg/FR-2026-04-20/pdf/2026-07643.pdf","public_inspection_pdf_url":"https://public-inspection.federalregister.gov/2026-07643.pdf?1776429916","publication_date":"2026-04-20","agencies":[{"raw_name":"COMMODITY FUTURES TRADING COMMISSION","name":"Commodity Futures Trading Commission","id":77,"url":"https://www.federalregister.gov/agencies/commodity-futures-trading-commission","json_url":"https://www.federalregister.gov/api/v1/agencies/77","parent_id":null,"slug":"commodity-futures-trading-commission"}],"excerpts":"The Commodity Futures Trading Commission (\"CFTC\" or \"Commission\") is issuing an order pursuant to the Commodity Exchange Act (\"CEA\") that provides exemptive relief from the CEA and Commission regulations related to segregation and protection of futures..."},{"title":"Enrolled Agent Special Enrollment Examination User Fee Update","type":"Rule","abstract":"This document contains interim final regulations relating to the imposition of user fees for the special enrollment examination for enrolled agents (EA SEE). These regulations reduce the user fee for each part of the EA SEE from $99 per part to $66 per part. The Independent Offices Appropriation Act of 1952 authorizes the charging of user fees. The text of these interim final regulations also serves as the text of the proposed regulations set forth in the notice of proposed rulemaking on this subject in this issue in the Proposed Rules section of this edition of the Federal Register.","document_number":"2026-07681","html_url":"https://www.federalregister.gov/documents/2026/04/20/2026-07681/enrolled-agent-special-enrollment-examination-user-fee-update","pdf_url":"https://www.govinfo.gov/content/pkg/FR-2026-04-20/pdf/2026-07681.pdf","public_inspection_pdf_url":"https://public-inspection.federalregister.gov/2026-07681.pdf?1776429919","publication_date":"2026-04-20","agencies":[{"raw_name":"DEPARTMENT OF THE TREASURY","name":"Treasury Department","id":497,"url":"https://www.federalregister.gov/agencies/treasury-department","json_url":"https://www.federalregister.gov/api/v1/agencies/497","parent_id":null,"slug":"treasury-department"},{"raw_name":"Internal Revenue Service","name":"Internal Revenue Service","id":254,"url":"https://www.federalregister.gov/agencies/internal-revenue-service","json_url":"https://www.federalregister.gov/api/v1/agencies/254","parent_id":497,"slug":"internal-revenue-service"}],"excerpts":"This document contains interim final regulations relating to the imposition of user fees for the special enrollment examination for enrolled agents (EA SEE). These regulations reduce the user fee for each part of the EA SEE from $99 per part to $66 per..."},{"title":"Extension of Compliance Dates for Nondiscrimination on the Basis of Disability; Accessibility of Web Information and Services of State and Local Government Entities","type":"Rule","abstract":"By this Interim Final Rule (\"IFR\"), the Department of Justice (\"Department\") is revising the regulations implementing title II of the Americans with Disabilities Act (\"ADA\") to extend the compliance dates for the requirements for web content and mobile application (\"app\") accessibility that were adopted on April 24, 2024. The compliance date for State and local government entities with a total population of 50,000 or more is extended from April 24, 2026, to April 26, 2027. The compliance date for public entities with a total population of less than 50,000, or any special district government, is extended from April 26, 2027, to April 26, 2028.","document_number":"2026-07663","html_url":"https://www.federalregister.gov/documents/2026/04/20/2026-07663/extension-of-compliance-dates-for-nondiscrimination-on-the-basis-of-disability-accessibility-of-web","pdf_url":"https://www.govinfo.gov/content/pkg/FR-2026-04-20/pdf/2026-07663.pdf","public_inspection_pdf_url":"https://public-inspection.federalregister.gov/2026-07663.pdf?1776429918","publication_date":"2026-04-20","agencies":[{"raw_name":"DEPARTMENT OF JUSTICE","name":"Justice Department","id":268,"url":"https://www.federalregister.gov/agencies/justice-department","json_url":"https://www.federalregister.gov/api/v1/agencies/268","parent_id":null,"slug":"justice-department"}],"excerpts":"By this Interim Final Rule (\"IFR\"), the Department of Justice (\"Department\") is revising the regulations implementing title II of the Americans with Disabilities Act (\"ADA\") to extend the compliance dates for the requirements for web content and mobile..."}]}